Convert 'gscramble' output to newhybrids format — gscramble2newhybrids • gscramble
…
# then run it
gscramble2newhybrids(M, M_meta)
#> $outfile
#> [1] "/tmp/RtmpEc82Tr/file17c7583e4911"
#> 
#> $genos
#> # A tibble: 78 × 102
#>    useit opt_col   WU_10.2_12_4469057 ALGA0064411 WU_10.2_12_7394362 ASGA0090707
#>    <int> <chr>     <chr>              <chr>       <chr>              <chr>      
#>  1     1 n h-1-1-… 0202               0000        0101               0201       
#>  2     2 n h-1-1-… 0102               0101        0101               0202       
#>  3     3 n h-1-1-… 0102               0000        0102               0201       
#>  4     4 n h-1-2-… 0102               0201        0102               0202       
#>  5     5 n h-1-2-… 0102               0201        0102               0202       
#>  6     6 n h-1-2-… 0202               0201        0101               0201       
#>  7     7 n permed… 0202               0101        0102               0101       
#>  8     8 n permed… 0202               0101        0202               0101       
#>  9     9 n permed… 0202               0101        0202               0000       
#> 10    10 n permed… 0202               0101        0202               0101       
#> # ℹ 68 more rows
#> # ℹ 96 more variables: WU_10.2_12_8971475 <chr>, WU_10.2_12_11034660 <chr>,
#> #   WU_10.2_12_11146365 <chr>, ASGA0053210 <chr>, ALGA0114537 <chr>,
#> #   WU_10.2_12_15628863 <chr>, ALGA0108041 <chr>, ALGA0065869 <chr>,
#> #   WU_10.2_12_31279548 <chr>, DRGA0011741 <chr>, WU_10.2_12_42676693 <chr>,
#> #   M1GA0016777 <chr>, WU_10.2_12_46448883 <chr>, ALGA0066740 <chr>,
#> #   MARC0036299 <chr>, ALGA0118253 <chr>, WU_10.2_12_57360470 <chr>, …
#> 
#> $allele_names
#> # A tibble: 298 × 4
#>    locus       allele alle_int     n
#>    <chr>       <chr>  <chr>    <int>
#>  1 17_13447160 A      01          42
#>  2 17_13447160 G      02         108
#>  3 17_13447160 NA     00           6
#>  4 17_17657093 C      01         102
#>  5 17_17657093 T      02          38
#>  6 17_17657093 NA     00          16
#>  7 ALGA0049523 A      01          86
#>  8 ALGA0049523 G      02          64
#>  9 ALGA0049523 NA     00           6
#> 10 ALGA0064411 C      01         136
#> # ℹ 288 more rows
…
